{
  "transaction": {
    "boleto": "123",
    "paymentMethod": "CreditCard",
    "amount": 10.46,
    "installments": 1,
    "creditCard": {
      "number": "5203510265142101",
      "holder": "Fernando A Z Penna",
      "expiration": "12/2020",
      "cvv": "123",
      "brand": "Master"
    }
  },
  "customer": {
    "name": "Fernando Augusto",
    "email": "futured@gmail.com",
    "phone": "+5565996489438",
    "document": "032.448.761-45",
    "documentType": "CPF"
  }
}